Chapter 3 Exponential Smoothing | MA 5124 Financial Time Series Analysis & Forecasting
…
Produce forecasts using best method.

Obtain forecast intervals using underlying state space model.

Method performed very well in M3 competition.

3.5.12 Example: National populations

fit <- global_economy %>%
  mutate(Pop = Population / 1e6) %>%
  model(ets = ETS(Pop))
fit

## # A mable: 263 x 2
## # Key:     Country [263]
##    Country                      ets
##    <fct>                    <model>
##  1 Afghanistan         <ETS(A,A,N)>
##  2 Albania             <ETS(M,A,N)>
##  3 Algeria             <ETS(M,A,N)>
##  4 American Samoa      <ETS(M,A,N)>
##  5 Andorra             <ETS(M,A,N)>
##  6 Angola              <ETS(M,A,N)>
##  7 Antigua and Barbuda <ETS(M,A,N)>
##  8 Arab World          <ETS(M,A,N)>
##  9 Argentina           <ETS(A,A,N)>
## 10 Armenia             <ETS(M,A,N)>
## # … with 253 more rows

fit %>%
  forecast(h = 5)

## # A fable: 1,315 x 5 [1Y]
## # Key:     Country, .model [263]
##    Country     .model  Year             Pop .mean
##    <fct>       <chr>  <dbl>          <dist> <dbl>
##  1 Afghanistan ets     2018    N(36, 0.012) 36.4 
##  2 Afghanistan ets     2019    N(37, 0.059) 37.3 
##  3 Afghanistan ets     2020     N(38, 0.16) 38.2 
##  4 Afghanistan ets     2021     N(39, 0.35) 39.0 
##  5 Afghanistan ets     2022     N(40, 0.64) 39.9 
##  6 Albania     ets     2018 N(2.9, 0.00012)  2.87
##  7 Albania     ets     2019   N(2.9, 6e-04)  2.87
##  8 Albania     ets     2020  N(2.9, 0.0017)  2.87
##  9 Albania     ets     2021  N(2.9, 0.0036)  2.86
## 10 Albania     ets     2022  N(2.9, 0.0066)  2.86
## # … with 1,305 more rows

3.5.13 Example: Australian holiday tourism

holidays <- tourism %>%
  filter(Purpose == "Holiday")
fit <- holidays %>% model(ets = ETS(Trips))
fit

## # A mable: 76 x 4
## # Key:     Region, State, Purpose [76]
##    Region                State          Purpose          ets
##    <chr>                 <chr>          <chr>        <model>
##  1 Adelaide              South Austral… Holiday <ETS(A,N,A)>
##  2 Adelaide Hills        South Austral… Holiday <ETS(A,A,N)>
##  3 Alice Springs         Northern Terr… Holiday <ETS(M,N,A)>
##  4 Australia's Coral Co… Western Austr… Holiday <ETS(M,N,A)>
##  5 Australia's Golden O… Western Austr… Holiday <ETS(M,N,M)>
##  6 Australia's North We… Western Austr… Holiday <ETS(A,N,A)>
##  7 Australia's South We… Western Austr… Holiday <ETS(M,N,M)>
##  8 Ballarat              Victoria       Holiday <ETS(M,N,A)>
##  9 Barkly                Northern Terr… Holiday <ETS(A,N,A)>
## 10 Barossa               South Austral… Holiday <ETS(A,N,N)>
## # … with 66 more rows
…
fit %>% forecast()

## # A fable: 608 x 7 [1Q]
## # Key:     Region, State, Purpose, .model [76]
##    Region   State   Purpose .model Quarter       Trips .mean
##    <chr>    <chr>   <chr>   <chr>    <qtr>      <dist> <dbl>
##  1 Adelaide South … Holiday ets    2018 Q1 N(210, 457) 210. 
##  2 Adelaide South … Holiday ets    2018 Q2 N(173, 473) 173. 
##  3 Adelaide South … Holiday ets    2018 Q3 N(169, 489) 169. 
##  4 Adelaide South … Holiday ets    2018 Q4 N(186, 505) 186. 
##  5 Adelaide South … Holiday ets    2019 Q1 N(210, 521) 210. 
##  6 Adelaide South … Holiday ets    2019 Q2 N(173, 537) 173. 
##  7 Adelaide South … Holiday ets    2019 Q3 N(169, 553) 169. 
##  8 Adelaide South … Holiday ets    2019 Q4 N(186, 569) 186. 
##  9 Adelaid… South … Holiday ets    2018 Q1   N(19, 36)  19.4
## 10 Adelaid… South … Holiday ets    2018 Q2   N(20, 36)  19.6
## # … with 598 more rows
…
