Chapter 5 Multivariate Time Series Modelling | MA 5124 Financial Time Series Analysis & Forecasting
…
Example

Consider the daily returns of adjusted closing prices of the Standard & Poor’s 500 (S&P500), the Dow Jones Industrial Average and the Nasdaq Composite indices from January 4, 1995 to February 25, 2021 (Figure 5.1).

These three market indices characterize the performance of the U.S. stock market from different perspectives and therefore they should be highly correlated.

# Tidy financial analysis 
library(tidyquant)

#S&P 500 index
sp500 <- tq_get("^GSPC", from = "1995-01-04", to = "2021-02-25" )
print(sp500)

## # A tibble: 6,582 x 8
##    symbol date        open  high   low close volume adjusted
##    <chr>  <date>     <dbl> <dbl> <dbl> <dbl>  <dbl>    <dbl>
##  1 ^GSPC  1995-01-04  459.  461.  458.  461. 3.20e8     461.
##  2 ^GSPC  1995-01-05  461.  461.  460.  460. 3.09e8     460.
##  3 ^GSPC  1995-01-06  460.  462.  459.  461. 3.08e8     461.
##  4 ^GSPC  1995-01-09  461.  462.  460.  461. 2.79e8     461.
##  5 ^GSPC  1995-01-10  461.  465.  461.  462. 3.52e8     462.
##  6 ^GSPC  1995-01-11  462.  464.  459.  462. 3.46e8     462.
##  7 ^GSPC  1995-01-12  462.  462.  461.  462. 3.13e8     462.
##  8 ^GSPC  1995-01-13  462.  466.  462.  466. 3.37e8     466.
##  9 ^GSPC  1995-01-16  466.  470.  466.  469. 3.16e8     469.
## 10 ^GSPC  1995-01-17  469.  470.  468.  470. 3.32e8     470.
## # … with 6,572 more rows

# The Dow Jones Industrial Average (DJIA)
dji<- tq_get("^DJI", from = "1995-01-04", to = "2021-02-25" )
print(dji)

## # A tibble: 6,582 x 8
##    symbol date        open  high   low close volume adjusted
##    <chr>  <date>     <dbl> <dbl> <dbl> <dbl>  <dbl>    <dbl>
##  1 ^DJI   1995-01-04 3838. 3858. 3831. 3858. 272200    3858.
##  2 ^DJI   1995-01-05 3858. 3861. 3843. 3851. 258100    3851.
##  3 ^DJI   1995-01-06 3851. 3887. 3842. 3867. 302400    3867.
##  4 ^DJI   1995-01-09 3867. 3874. 3853. 3861. 208200    3861.
##  5 ^DJI   1995-01-10 3861. 3899. 3861. 3867. 282500    3867.
##  6 ^DJI   1995-01-11 3867. 3883. 3840. 3862. 281000    3862.
##  7 ^DJI   1995-01-12 3862  3864. 3851. 3859  237400    3859 
##  8 ^DJI   1995-01-13 3859  3910. 3859  3908. 305800    3908.
##  9 ^DJI   1995-01-16 3908. 3937. 3907. 3932. 292500    3932.
## 10 ^DJI   1995-01-17 3932. 3935. 3916. 3931. 268800    3931.
## # … with 6,572 more rows

# The Nasdaq Composite 
nasdaq<- tq_get("^IXIC", from = "1995-01-04", to = "2021-02-25" )
print(nasdaq)

## # A tibble: 6,582 x 8
##    symbol date        open  high   low close volume adjusted
##    <chr>  <date>     <dbl> <dbl> <dbl> <dbl>  <dbl>    <dbl>
##  1 ^IXIC  1995-01-04  745.  746.  740.  746. 2.90e8     746.
##  2 ^IXIC  1995-01-05  747.  748.  745.  746. 2.98e8     746.
##  3 ^IXIC  1995-01-06  746.  751.  746.  750. 3.13e8     750.
##  4 ^IXIC  1995-01-09  750.  753.  750.  752. 2.67e8     752.
##  5 ^IXIC  1995-01-10  754.  759.  754.  757. 3.54e8     757.
##  6 ^IXIC  1995-01-11  758.  760.  752.  756. 3.30e8     756.
##  7 ^IXIC  1995-01-12  756.  757.  755.  757. 3.02e8     757.
##  8 ^IXIC  1995-01-13  758.  762.  757.  762. 3.14e8     762.
##  9 ^IXIC  1995-01-16  762.  769.  762.  768. 3.01e8     768.
## 10 ^IXIC  1995-01-17  769.  772.  768.  772. 3.37e8     772.
## # … with 6,572 more rows
…
