Chapter 4 Volatility Models | MA 5124 Financial Time Series Analysis & Forecasting
…
In finance, the data can be collected much more frequently – High frequency data.

Many financial time series also exhibit changing variance and this can have important consequences in formulating financial decisions.

Example: Financial time series

Typically, when we analyze assets, we look at the percentage change in prices or returns.

# Tidy financial analysis 
library(tidyquant)

sp500 <- tq_get("^GSPC", from = "1995-01-04", to = "2021-02-25" )
print(sp500)

## # A tibble: 6,582 x 8
##    symbol date        open  high   low close volume adjusted
##    <chr>  <date>     <dbl> <dbl> <dbl> <dbl>  <dbl>    <dbl>
##  1 ^GSPC  1995-01-04  459.  461.  458.  461. 3.20e8     461.
##  2 ^GSPC  1995-01-05  461.  461.  460.  460. 3.09e8     460.
##  3 ^GSPC  1995-01-06  460.  462.  459.  461. 3.08e8     461.
##  4 ^GSPC  1995-01-09  461.  462.  460.  461. 2.79e8     461.
##  5 ^GSPC  1995-01-10  461.  465.  461.  462. 3.52e8     462.
##  6 ^GSPC  1995-01-11  462.  464.  459.  462. 3.46e8     462.
##  7 ^GSPC  1995-01-12  462.  462.  461.  462. 3.13e8     462.
##  8 ^GSPC  1995-01-13  462.  466.  462.  466. 3.37e8     466.
##  9 ^GSPC  1995-01-16  466.  470.  466.  469. 3.16e8     469.
## 10 ^GSPC  1995-01-17  469.  470.  468.  470. 3.32e8     470.
## # … with 6,572 more rows
…
